{
	"uuid": "8d381b55-17b2-4eca-974a-94cf1523575b",
	"transactionId": "bitcoin_YYMMDDHHMISS",
	"appName": "bitcoin-integration",
	"type": "BATCH",
	"flowStep": "start",
	"timeStamp": "now()",
	"message": "I am about to connect to Big Query to pull records",
	"eventName": "BigQueryPrepare",
	"payload": {
		"payloadFromEvet": "payload"
	},
	"additionalKeys": {
		"invZipFileName": "InvTransactionsInterface_BTC_YYMMDDHHMISS",
		"fahZipFileName": "XlaTransaction_BTC_YYMMDDHHMISS"
	}
}