{
	"uploadFileToUcmRequest": {
		"HeaderKeyName": "XlaTrxH",
		"LineKeyName": "XlaTrxL",
		"zipFilePath": "staging/fah-csvfiles/XlaTransaction_BTC_MMDDYYYYHH24MISS.zip",
		"DocumentTitle": "optional : XlaTransaction_BTC_MMDDYYYYHH24MISS.zip",
		"ContentType": "zip",
		"DocumentAuthor": "optional : sqinterface_oracle@squareup.com",
		"DocumentSecurityGroup": "FAFusionImportExport",
		"DocumentAccount": "scm$/inventoryTransactions$/import$"
	}
}